KK3: 0.001
KK1: -0.067 

Rest Test: -0.078
Rest Test: 0.163
Rest Test: -0.098
Rest Test: -0.134
Rest Test: -0.127
Rest Test: 0.169
Rest Test: -0.054
Rest Test: 0.036
Rest Test: 0.115
Rest Test: 0.132

R1 Phase Difference mean: 0.061
R3 Phase Difference mean: -0.040

V1 Phase Difference mean: -0.216
V2 Phase Difference mean: -0.287
V3 Phase Difference mean: -0.499

t-test p-value: 0.040140
